…
``` r
# Combine
trash_wheel = 
  bind_rows(mr_trash_wheel, prof_trash_wheel, gwy_trash_wheel) %>% 
  janitor::clean_names() %>% 
  relocate(name)
trash_wheel
```

    ## # A tibble: 1,033 × 15
    ##    name  dumpster month  year date                weight_tons volume_cubic_yards
    ##    <chr>    <dbl> <chr> <int> <dttm>                    <dbl>              <dbl>
    ##  1 mr           1 May    2014 2014-05-16 00:00:00        4.31                 18
    ##  2 mr           2 May    2014 2014-05-16 00:00:00        2.74                 13
    ##  3 mr           3 May    2014 2014-05-16 00:00:00        3.45                 15
    ##  4 mr           4 May    2014 2014-05-17 00:00:00        3.1                  15
    ##  5 mr           5 May    2014 2014-05-17 00:00:00        4.06                 18
    ##  6 mr           6 May    2014 2014-05-20 00:00:00        2.71                 13
    ##  7 mr           7 May    2014 2014-05-21 00:00:00        1.91                  8
    ##  8 mr           8 May    2014 2014-05-28 00:00:00        3.7                  16
    ##  9 mr           9 June   2014 2014-06-05 00:00:00        2.52                 14
    ## 10 mr          10 June   2014 2014-06-11 00:00:00        3.76                 18
    ## # ℹ 1,023 more rows
    ## # ℹ 8 more variables: plastic_bottles <dbl>, polystyrene <dbl>,
    ## #   cigarette_butts <dbl>, glass_bottles <dbl>, plastic_bags <dbl>,
    ## #   wrappers <dbl>, sports_balls <int>, homes_powered <dbl>
…
``` r
star_baker_winner = data_combine %>%
  filter(series >= 5 & series <= 10) %>%
  filter(result %in% c("STAR BAKER", "WINNER"))

star_baker_winner
```

    ## # A tibble: 60 × 10
    ##    baker   baker_age baker_occupation series episode signature_bake show_stopper
    ##    <chr>       <dbl> <chr>             <dbl>   <dbl> <chr>          <chr>       
    ##  1 Nancy          60 Retired Practic…      5       1 Coffee and Ha… "Jaffa Oran…
    ##  2 Richard        38 Builder               5       2 Rosemary Seed… "Pirates!"  
    ##  3 Luis           42 Graphic Designer      5       3 Opposites Att… "Roscón de …
    ##  4 Richard        38 Builder               5       4 Black Forest … "Tiramisu B…
    ##  5 Kate           41 Furniture Resto…      5       5 Rhubarb and C… "Rhubarb, P…
    ##  6 Chetna         35 Fashion Designer      5       6 Orange Savari… "Almond Liq…
    ##  7 Richard        38 Builder               5       7 Minted Lamb P… "Stair of É…
    ##  8 Richard        38 Builder               5       8 Fruit Swedish… "Rhubarb an…
    ##  9 Richard        38 Builder               5       9 Rose and Pist… "Hazelnut M…
    ## 10 Nancy          60 Retired Practic…      5      10 Apple and Lem… "Red Windmi…
    ## # ℹ 50 more rows
    ## # ℹ 3 more variables: hometown <chr>, technical <dbl>, result <chr>

``` r
summary_table = star_baker_winner %>%
  select(series, episode, baker, result) %>%
  arrange(series, episode)

summary_table
```

    ## # A tibble: 60 × 4
    ##    series episode baker   result    
    ##     <dbl>   <dbl> <chr>   <chr>     
    ##  1      5       1 Nancy   STAR BAKER
    ##  2      5       2 Richard STAR BAKER
    ##  3      5       3 Luis    STAR BAKER
    ##  4      5       4 Richard STAR BAKER
    ##  5      5       5 Kate    STAR BAKER
    ##  6      5       6 Chetna  STAR BAKER
    ##  7      5       7 Richard STAR BAKER
    ##  8      5       8 Richard STAR BAKER
    ##  9      5       9 Richard STAR BAKER
    ## 10      5      10 Nancy   WINNER    
    ## # ℹ 50 more rows
…
